8091A2B34048D159;55F9C210C87FC9B25DDB95A854118000
202468AC90123456;33834990F58E1AC47A38604D08A1C000
48091A2B24048D15;126BDD97CFE5761D1E8536DBD8860000
1202468A89012345;2120EB50E0FA6D4497BB5E133AB4C000
448091A2A24048D1;CD60A1359D920BA794B0D536C0410000
5120246828901234;56E3570A25539A621D0C92AD822BC000
9448091A4A24048D;6135DE37313E871BC4DDB3CAD3650000
2512024612890123;CC4CE6C4DF60B9823C4969087D250000
0944809104A24048;7056E3E816D00E377FC12C9C20928000
0251202401289012;26C36FEF35549C1E3B99400186BBC000
80944809C04A2404;3CEF9DB2A90471376AB92FAFFA360000
60251202B0128901;77B6D99E69443B6091E8085FCA3A0000
D80944806C04A240;6880A3EDE8252052084933AD92F0C000
360251201B012890;D4CA1A2E41F2E5E9A22CA6218A938000
0D80944806C04A24;00AE263FFC3C555C7FF366796D5A4000
0360251201B01289;EC07613801DDD1FAC5FE6A16C0FE8000
80D80944406C04A2;4006542EAF1C08DC44D47AE6D6A5C000
20360251901B0128;0A45B99BBCD6ACD4562636CE483CC000
480D8094A406C04A;1C5DA8BF9FDE54AA4CE398D420940000
D20360256901B012;96B7C259D80E29F0E3D36F8C40130000
B480D809DA406C04;9A315F653C17FE422F41B2BD190CC000
6D203602B6901B01;9AE80D35F807C5622AED34138DFE4000
DB480D80EDA406C0;12CC9CDBC3D679CFA077F60891438000
76D20360BB6901B0;F3E9FA9F1C4CCC30A05A79D7F9678000
DDB480D86EDA406C;0EA97824D1E6603CBEE5A0B174484000
376D20369BB6901B;A80A32AD203C46DBAA51DEF828948000
4DDB480DA6EDA406;20AD7A14819DE5F545186702A5308000
D376D203E9BB6901;DB484992C371D627A40ADBB35EB4C000
F4DDB480FA6EDA40;6909E646A1BA6654B2574037FD040000
FD376D207E9BB690;AFE7CE758458EAF218FB05720D2FC000
3F4DDB489FA6EDA4;B63737A244C7907DE87C11FACE12C000
CFD376D267E9BB69;DCDBD21B132A0DA8BEF29059AB644000
