8091A2B34048D159;9E50F13AB573E6796203E25F31370000
202468AC90123456;7340F328F0424BF6E1475549EE4E0000
48091A2B24048D15;3D24A64625B8BC97F5F42430D2390000
1202468A89012345;C6F40158EFC49E5D81A6F8784D1F0000
448091A2A24048D1;B23E0A5E91B75358B655E3F65A054000
5120246828901234;524F9826B1D7CF1A9C65ED73F5CF4000
9448091A4A24048D;7A4EE96D2AD6976B8429675FC6A6C000
2512024612890123;2681756225F454687E0F99241E590000
