8091A2B34048D159;70D421F9DFC426785631BD9F86F38000
202468AC90123456;BAA911331DE08990007550165E6E8000
48091A2B24048D15;C9360380D5115E64D5AEC8AE4C4B0000
1202468A89012345;6E49F887AE0783730AC90FF08FC64000
448091A2A24048D1;87D0E911421FD477A39B45CA15F6C000
5120246828901234;FC834D9B3547B9D9A45810E7ED228000
9448091A4A24048D;F22F6E4A0420745E9B48944AB49A0000
2512024612890123;1019FBDE79CF4ACCD4D13F85EFFC4000
